{
  "paths": {

    "src": "src/",
    "dist": "dist/",

    "images": "assets/img/"

  },

  "sources": {

    "html": "**/**.html",
    "tag": "**/**.tag",
    "images": [
      "node_modules/semantic-ui-css/**/**.+(eot|otf|svg|ttf|woff|woff2)",
      "src/assets/img/**/**.*"
    ]

  }
}
